<svg xmlns="http://www.w3.org/2000/svg" width="24" height="24" viewBox="0 0 24 24">
    <defs>
        <linearGradient id="a" x1="35.609%" x2="50%" y1="46.34%" y2="100%">
            <stop offset="0%" stop-color="#FE003D"/>
            <stop offset="100%" stop-color="#C20000"/>
        </linearGradient>
        <linearGradient id="b" x1="42.258%" x2="50%" y1="46.34%" y2="100%">
            <stop offset="0%" stop-color="#FE003D"/>
            <stop offset="100%" stop-color="#C20000"/>
        </linearGradient>
        <linearGradient id="c" x1="40.082%" x2="50%" y1="46.34%" y2="100%">
            <stop offset="0%" stop-color="#FE003D"/>
            <stop offset="100%" stop-color="#C20000"/>
        </linearGradient>
    </defs>
    <g fill="none" fill-rule="evenodd" transform="translate(2 2)">
        <circle cx="9.875" cy="9.875" r="9.875" fill="#FFF"/>
        <g fill-rule="nonzero">
            <path fill="url(#a)" d="M19.78 9.89c0-4.451-2.941-8.215-6.985-9.456-.03.246-.064.554-.102.868l-.092 1.352c-.008.158-.149.27-.312.294.002 0-.042.533-.036 1.07l-.01 1.07c.001.157-.133.278-.296.311 0 0-.026.533.02 1.07l.06 1.067c.01.155-.114.286-.274.33l.06 1.066c.043.533.128 1.061.128 1.061.024.162-.09.295-.247.345l.285 2.115c.022.158-.068.298-.224.358l.481 2.084c.04.153-.063.303-.213.372l.244 1.038.356 1.01c.054.146-.03.304-.174.384l.553 1.574c3.937-1.303 6.778-5.01 6.778-9.384z"/>
            <path fill="url(#b)" d="M11.576 17.328c-.033-.146.05-.283.181-.353l-.111-.321a4.714 4.714 0 0 1-.199-.722l-.242-1.059-.006-.04c-.015-.15.08-.278.22-.34 0 0-.508-2.125-.463-2.131l-.003-.04c-.002-.152.106-.274.25-.325l-.286-2.157-.003-.04c-.001-.151.106-.267.25-.309-.05.002-.148-2.169-.148-2.169l.001-.038c.009-.15.127-.26.273-.294l-.055-1.087.012-1.087.003-.04c.02-.15.143-.252.292-.277l.013-1.089.067-1.086.005-.04c.026-.148.157-.242.307-.26-.001 0 .02-.543.089-1.084.028-.246.056-.487.08-.682a10.068 10.068 0 0 0-.646-.122c-.06.226-.135.532-.224.928a.355.355 0 0 1-.42.268.353.353 0 0 1-.269-.423c.081-.362.15-.64.207-.865A9.853 9.853 0 0 0 9.89 0c-.395 0-.783.03-1.166.075-.06.229-.143.562-.24.989a.355.355 0 0 1-.422.268.353.353 0 0 1-.267-.423c.064-.286.12-.517.17-.718-.261.051-.517.119-.77.191-.03.252-.07.586-.108.921l-.094 1.352c-.008.158-.147.27-.312.294.002 0-.041.533-.036 1.07l-.01 1.07c.001.157-.132.278-.296.311 0 0-.025.533.02 1.07l.059 1.067c.012.155-.114.286-.273.33l.059 1.066c.044.533.129 1.061.129 1.061.024.162-.09.295-.246.345l.283 2.115a.33.33 0 0 1-.223.358l.48 2.084c.04.153-.063.303-.212.372 0 0 .121.52.244 1.038l.355 1.01c.054.146-.03.304-.172.384l.62 1.767c.162.041.32.088.484.12-.026-.102-.057-.202-.082-.303a.35.35 0 0 1 .255-.427.348.348 0 0 1 .429.255c.05.196.106.394.16.592.388.045.78.076 1.18.076.286 0 .566-.02.846-.042-.04-.152-.084-.303-.123-.453a.351.351 0 0 1 .257-.428.348.348 0 0 1 .428.255c.045.178.097.356.145.535.296-.048.588-.106.874-.178l-.733-2.102-.005-.039zM7.512 2.307a.354.354 0 0 1 .695.128c-.078.42-.157.882-.231 1.382a.354.354 0 0 1-.7-.105c.077-.507.157-.978.236-1.405zm-.424 2.82a.362.362 0 0 1 .391-.31.353.353 0 0 1 .31.39c-.052.446-.1.912-.141 1.397a.354.354 0 0 1-.352.322h-.031a.354.354 0 0 1-.322-.382c.044-.492.093-.966.145-1.418zm-.24 2.837c.01-.194.188-.357.37-.333.196.01.346.176.335.371-.023.454-.04.922-.05 1.401a.354.354 0 0 1-.354.345h-.006a.352.352 0 0 1-.346-.36c.01-.488.026-.962.05-1.424zm-.056 2.85a.354.354 0 0 1 .347-.36h.006c.193 0 .35.155.352.348.008.458.023.926.046 1.4.01.195-.14.36-.335.37h-.016a.353.353 0 0 1-.353-.335c-.027-.481-.04-.957-.047-1.423zm.29 4.264c-.06-.478-.108-.949-.148-1.417a.351.351 0 0 1 .321-.382.354.354 0 0 1 .382.322c.04.46.089.922.145 1.393a.35.35 0 0 1-.307.392c-.014.003-.028.003-.044.003a.352.352 0 0 1-.349-.311zm.882 3.089a.354.354 0 0 1-.417-.274c-.098-.47-.184-.938-.262-1.403a.353.353 0 1 1 .698-.116c.075.456.16.915.255 1.376a.353.353 0 0 1-.274.417zm2.296-15.86a.358.358 0 0 1 .412-.284c.192.037.32.221.284.412-.078.42-.157.882-.232 1.382a.352.352 0 1 1-.698-.105c.077-.507.156-.978.234-1.405zm-.422 2.82a.358.358 0 0 1 .391-.31.354.354 0 0 1 .31.39c-.052.446-.1.912-.142 1.397a.353.353 0 0 1-.35.322h-.032a.354.354 0 0 1-.321-.382c.042-.492.09-.966.144-1.418zm-.242 2.837c.01-.194.188-.357.371-.333.194.01.345.176.335.371-.024.454-.041.922-.051 1.401a.352.352 0 0 1-.353.345h-.006a.352.352 0 0 1-.346-.36c.008-.488.026-.962.05-1.424zm-.054 2.85a.354.354 0 0 1 .347-.36h.005c.193 0 .35.155.353.348.008.458.023.926.046 1.4.01.195-.141.36-.335.37H9.94a.353.353 0 0 1-.352-.335c-.026-.481-.04-.957-.046-1.423zm.289 4.264c-.06-.478-.108-.949-.149-1.417a.353.353 0 1 1 .703-.06c.04.46.089.922.146 1.393a.35.35 0 0 1-.308.392c-.014.003-.028.003-.044.003a.353.353 0 0 1-.348-.311zm.882 3.089a.35.35 0 0 1-.418-.274c-.098-.47-.184-.938-.26-1.403a.353.353 0 1 1 .697-.116c.076.456.16.915.256 1.376a.354.354 0 0 1-.275.417z"/>
            <path fill="url(#c)" d="M5.97 17.328c-.032-.146.049-.283.181-.353l-.112-.321a4.629 4.629 0 0 1-.197-.722L5.6 14.873l-.008-.04c-.015-.15.08-.278.22-.34-.002 0-.508-2.125-.463-2.131l-.002-.04c-.003-.152.105-.274.25-.325L5.31 9.84l-.003-.04c-.002-.151.106-.267.25-.309-.052.002-.15-2.169-.15-2.169l.002-.038c.01-.15.127-.26.273-.294 0 0-.026-.543-.055-1.087l.012-1.087.005-.04c.018-.15.141-.252.292-.277L5.95 3.41c.035-.542.067-1.086.067-1.086l.006-.04c.026-.148.157-.242.307-.26-.002 0 .02-.543.088-1.084l.038-.314C2.69 2.024 0 5.637 0 9.889c0 4.317 2.77 7.977 6.625 9.329l-.645-1.852-.01-.038z"/>
        </g>
    </g>
</svg>
