<svg xmlns="http://www.w3.org/2000/svg" width="24" height="24" viewBox="0 0 24 24">
    <g fill="none" fill-rule="evenodd">
        <path d="M0 0h24v24H0z"/>
        <path fill="#FFF" fill-rule="nonzero" d="M7.155 6.097v11.906c0 .776.886 1.246 1.523.803l8.584-5.953a.984.984 0 0 0 0-1.606L8.678 5.294c-.637-.443-1.523.027-1.523.803z"/>
    </g>
</svg>
