<svg xmlns="http://www.w3.org/2000/svg" width="24" height="24" viewBox="0 0 24 24">
    <g fill="none" fill-rule="evenodd">
        <path d="M0 0h24v24H0z"/>
        <path fill="#FFF" fill-rule="nonzero" d="M4.073 19.927a.25.25 0 0 1-.018-.332l4.866-6.043 1.527 1.527-6.043 4.866a.25.25 0 0 1-.332-.018zm10.13-2.79l-.153.155L6.708 9.95l.155-.155c.725-.725 2.202-.422 2.926.302l.285.286 4.93-4.929-.342-.341a.652.652 0 1 1 .922-.922l4.224 4.224a.653.653 0 0 1-.922.922l-.341-.341-4.929 4.929.285.286c.724.724 1.027 2.201.303 2.925z" opacity=".7"/>
    </g>
</svg>
